{
  "project_info": {
    "project_number": "274669974455",
    "firebase_url": "https://instatask-c40c3.firebaseio.com",
    "project_id": "instatask-c40c3",
    "storage_bucket": "instatask-c40c3.appspot.com"
  },
  "client": [
    {
      "client_info": {
        "mobilesdk_app_id": "1:274669974455:android:0cd1138836b94d42",
        "android_client_info": {
          "package_name": "com.yourappsgeek.instatask"
        }
      },
      "oauth_client": [
        {
          "client_id": "274669974455-rvgrbhboa9i2afq6op75atbsikc4f6vv.apps.googleusercontent.com",
          "client_type": 1,
          "android_info": {
            "package_name": "com.yourappsgeek.instatask",
            "certificate_hash": "a55b0b2683c08c2c68ac1af26cdf29235635f617"
          }
        },
        {
          "client_id": "274669974455-q47rjgq5dkcu411095sljo4mitn9anj9.apps.googleusercontent.com",
          "client_type": 3
        }
      ],
      "api_key": [
        {
          "current_key": "AIzaSyBGIBYw4EWbj2nubUERTUUsRM-1L89Svm0"
        }
      ],
      "services": {
        "appinvite_service": {
          "other_platform_oauth_client": [
            {
              "client_id": "274669974455-q47rjgq5dkcu411095sljo4mitn9anj9.apps.googleusercontent.com",
              "client_type": 3
            },
            {
              "client_id": "274669974455-bvpe4dmr867q7ui6gduk26d9qr49ju6m.apps.googleusercontent.com",
              "client_type": 2,
              "ios_info": {
                "bundle_id": "com.mustafashaheen.InstaTask"
              }
            }
          ]
        }
      }
    }
  ],
  "configuration_version": "1"
}